HÁBITOS DE HIDRATACIÓN EN ESTUDIANTES DE LA UTEC EN ABRIL DEL 2023
…
En este caso, “para vivir y respirar, […], se requiere la ingesta de
aproximadamente 2.5 litros de líquido al día” (Ojeda, 2015, p. 37). Con
esto se puede entender que un alumno bien hidratado debería consumir
como mínimo 2.5 litros de líquidos. Es importante destacar que una
ingesta de 3 litros de agua diarios es todavía considerado aceptable.
Sin embargo, ingestas mayores a las mencionadas pueden causar problemas
en la salud, así como ingestas menores a 2.5 litros diarios. A partir de
esta información se analizarán los datos registrados.

En primer lugar se analizarán a los alumnos mal hidratados
(hiperhidratación o deshidratación):

filter(Bdatos,Litros_por_dia<2.5 | Litros_por_dia>3)

## # A tibble: 123 x 34
##     Edad Género   Carrera Ciclo Litros_por_dia Litros_clase Sed_clase Agua_clase
##    <dbl> <chr>    <chr>   <chr>          <dbl>        <dbl> <chr>     <chr>     
##  1    23 Otro     Ingeni~ Quin~           1.05          0.5 Ni mucha~ A veces   
##  2    18 Femenino Cienci~ Terc~           1.5           0.5 Poca      Casi nunca
##  3    18 Femenino Ingeni~ Cuar~           4             2   Mucha     Siempre   
##  4    17 Masculi~ Ingeni~ Segu~           2             1   Ni mucha~ Casi nunca
##  5    19 Masculi~ Ingeni~ Segu~           2             1   Ni mucha~ Casi nunca
##  6    18 Femenino Ingeni~ Terc~           1             0.5 Poca      A veces   
##  7    19 Masculi~ Ingeni~ Déci~           2             1   Muy poca  Casi nunca
##  8    18 Femenino Bioing~ Terc~           2             1   Moderada  Siempre   
##  9    21 Femenino Ingeni~ Cuar~           2             1.5 Ni mucha~ A veces   
## 10    18 Otro     Cienci~ Cuar~           1             1   Ni mucha~ Casi siem~
## # i 113 more rows
## # i 26 more variables: Gaseosas_clase <chr>, Bebidas_energeticas_clase <chr>,
## #   Infusiones_clase <chr>, Cansado_tipo_liquido <chr>,
## #   Liquido_mejora_rendimiento <chr>, Rendimiento_hidratado <chr>,
## #   Concentracion_clase <chr>, Memoria <chr>, Deshidratacion_efectos <chr>,
## #   Salud_fisica <chr>, Migrañas <chr>, Fatiga <chr>, Salud_mental <chr>,
## #   Ansiedad <chr>, Estres <chr>, CF_no_ingesta_liquido <chr>, Peso <dbl>, ...
…
