Análisis comparativo de los salarios de Data Science entre 2020-2023 a nivel internacional
…
muestra=read_csv("muestra.csv")

## Rows: 1000 Columns: 11
## -- Column specification --------------------------------------------------------
## Delimiter: ","
## chr (7): experience_level, employment_type, job_title, salary_currency, empl...
## dbl (4): work_year, salary, salary_in_usd, remote_ratio
## 
## i Use `spec()` to retrieve the full column specification for this data.
## i Specify the column types or set `show_col_types = FALSE` to quiet this message.

muestra

## # A tibble: 1,000 x 11
##    work_year experience_level employment_type job_title   salary salary_currency
##        <dbl> <chr>            <chr>           <chr>        <dbl> <chr>          
##  1      2020 SE               FT              Data Engin~  42000 EUR            
##  2      2023 SE               FT              Machine Le~ 126000 USD            
##  3      2022 SE               FT              Applied Ma~ 108000 USD            
##  4      2023 SE               FT              NLP Engine~ 175000 USD            
##  5      2023 SE               FT              Data Engin~ 210000 USD            
##  6      2023 EX               FT              Data Scien~ 145000 USD            
##  7      2022 SE               FT              Data Scien~ 168000 USD            
##  8      2020 EX               FT              Staff Data~  15000 USD            
##  9      2022 SE               FT              Data Engin~ 250000 USD            
## 10      2022 SE               FT              Data Analy~ 105000 USD            
## # i 990 more rows
## # i 5 more variables: salary_in_usd <dbl>, employee_residence <chr>,
## #   remote_ratio <dbl>, company_location <chr>, company_size <chr>
…
## The following objects are masked from 'package:stats':
## 
##     filter, lag

## The following objects are masked from 'package:base':
## 
##     intersect, setdiff, setequal, union

library(ggplot2)

#Salario promedio para cada rol de empleo (especialidad)
salariopromedio <- muestra %>% group_by(job_title) %>% summarise(prom = mean(salary_in_usd))
salariopromedio

## # A tibble: 61 x 2
##    job_title                             prom
##    <chr>                                <dbl>
##  1 3D Computer Vision Researcher       50000 
##  2 AI Developer                       216673.
##  3 AI Scientist                        97579.
##  4 Analytics Engineer                 153140.
##  5 Applied Data Scientist             103746 
##  6 Applied Machine Learning Scientist  71156.
##  7 Applied Scientist                  169412.
##  8 BI Analyst                         135000 
##  9 BI Data Analyst                     65643.
## 10 BI Developer                       117000 
## # i 51 more rows

#Rango entre el salario máximo y mínimo
rango <- muestra %>% group_by(job_title) %>% summarise(ran = max(salary_in_usd) - min(salary_in_usd))
rango

## # A tibble: 61 x 2
##    job_title                             ran
##    <chr>                               <dbl>
##  1 3D Computer Vision Researcher           0
##  2 AI Developer                       224980
##  3 AI Scientist                       188000
##  4 Analytics Engineer                 221300
##  5 Applied Data Scientist             122762
##  6 Applied Machine Learning Scientist  77531
##  7 Applied Scientist                  149320
##  8 BI Analyst                              0
##  9 BI Data Analyst                    143730
## 10 BI Developer                        40000
## # i 51 more rows
…
