La correlación entre las inmigraciones y los índices de violencia en México
…
Percepción de seguridad pública
Numérica

Tabla de la encuesta nacional de migraciones en
México

La siguiente tabla contiene la mayoría de variables a utlizar en la
investigación para determinar patrones.

## Warning in 179:180:183: numerical expression has 2 elements: only the first
## used

## # A tibble: 1,198 x 71
##     p5_1  p5_2  p5_3  p5_4  p6_5  p6_6  p6_7  p7_1 p11       p11a_1 p12   p12a_1
##    <dbl> <dbl> <dbl> <dbl> <dbl> <dbl> <dbl> <dbl> <chr>      <dbl> <chr>  <dbl>
##  1     3     2     2     2     3     2     3     1 "narcotr~      5 "tr\~      5
##  2     8     8     8     8     2     8     8     8 "98"          98 "98"      98
##  3     8     8     2     8     1     2     8     1 "Estados~      3 "98"      98
##  4     2     2     2     2     3     3     2     2 "Tamauli~      2 "98"      98
##  5     1     1     1     1     3     3     3     1 "migrant~      7 "mig~      7
##  6     2     2     2     2     3     3     3     1 "gente s~      7 "bus~      4
##  7     3     4     3     3     3     2     2     1 "Estados~      2 "sal~      3
##  8     2     2     2     2     3     1     2     8 "98"          98 "ind~      7
##  9     4     4     4     4     3     3     3     1 "chihuah~      2 "Gua~      3
## 10     2     2     2     2     3     3     3     1 "nuevo l~      2 "pa\~      3
## # i 1,188 more rows
## # i 59 more variables: p20_1a_1 <dbl>, p34 <dbl>, p38 <dbl>, p39 <dbl>,
## #   p41 <chr>, p41aa_1 <dbl>, p42 <dbl>, p43_1 <dbl>, p43_2 <dbl>, p43_3 <dbl>,
## #   p43_4 <dbl>, p43_5 <dbl>, p43_6 <dbl>, p44 <dbl>, p45 <dbl>, p46 <dbl>,
## #   p47 <dbl>, p48 <dbl>, p49_1 <dbl>, p49_2 <dbl>, p49_3 <dbl>, p49_4 <dbl>,
## #   p49_5 <dbl>, p50_1 <dbl>, p51 <dbl>, p52 <dbl>, p53 <dbl>, p54 <dbl>,
## #   p55 <dbl>, p60_2 <dbl>, p60_3 <dbl>, p66 <dbl>, p67_1 <dbl>, ...
…
Tabla de percepción de seguridad pública

## # A tibble: 32 x 5
##    Entidad              `2015` `2016` `2017` `2018`
##    <chr>                 <dbl>  <dbl>  <dbl>  <dbl>
##  1 Aguascalientes         42.5   43.7   60.9   56.4
##  2 Baja California        56.8   58     72.7   66.4
##  3 Baja California Sur    44.2   60.9   65.3   48.2
##  4 Campeche               54.4   57.6   57.8   61  
##  5 Coahuila de Zaragoza   55.9   56.4   64     57.1
##  6 Colima                 72     74.5   80.5   77.8
##  7 Chiapas                57.2   61.1   71.4   68.8
##  8 Chihuahua              63.1   74.2   80.9   80.8
##  9 Ciudad de México       84.6   85.7   88.3   89.2
## 10 Durango                57     57.4   60.4   64.7
## # i 22 more rows

Tabla de Deportados por Irregularidades

## # A tibble: 32 x 3
##    Entidad              Total `Cantidad de deportados 2019`
##    <chr>                <dbl>                         <dbl>
##  1 Aguascalientes         294                           304
##  2 Baja California       2560                          1862
##  3 Baja California Sur     30                            30
##  4 Campeche               537                           475
##  5 Coahuila de Zaragoza  7672                          6104
##  6 Colima                  22                            14
##  7 Chiapas              79838                         58569
##  8 Chihuahua             4227                          1359
##  9 Ciudad de México      2946                          4584
## 10 Durango                495                           466
## # i 22 more rows

Tabla de Tasa Delictiva

## # A tibble: 32 x 11
##    Entidad `2010` `2011` `2012` `2013` `2014` `2015` `2016` `2017` `2018` `2019`
##    <chr>    <dbl>  <dbl>  <dbl>  <dbl>  <dbl>  <dbl>  <dbl>  <dbl>  <dbl>  <dbl>
##  1 Aguasc~  56089  25511  32368  24711  39453  35457  41254  39912  36500  48443
##  2 Baja C~  31791  29446  39297  57066  56632  32758  51286  43921  42725  35655
##  3 Baja C~  25779  28884  31049  23747  34700  25577  29939  25690  28377  18887
##  4 Campec~  20922  21704  29097  30597  29306  22114  28892  28283  26466  18595
##  5 Coahui~  29279  26558  17870  25451  18318  24800  25215  25299  24813  21896
##  6 Colima   17343  22287  25169  26309  30535  27045  29449  27074  28376  29280
##  7 Chiapas  15028  13663  12827  19215  19160  16687  20055  20464  19409  13903
##  8 Chihua~  41903  30562  35952  31669  24295  31274  34920  28857  28622  23133
##  9 Ciudad~  44055  40790  49198  51786  59545  52718  49913  68954  69716  62008
## 10 Durango  23803  21540  27631  22512  30080  25640  23283  22566  22586  21373
## # i 22 more rows
…
