Informe_proyecto
…
Podemos ver que slo se presentan datos faltantes en 3 variables,
para observar por qu procede visualizaremos las filas correspondientes
a stos datos faltantes

DF %>% group_by(Asesorias=(Asesorias)) %>% select(Horas_asesorias,Satisfaccion_asesorias)

## Adding missing grouping variables: `Asesorias`

## # A tibble: 204 x 3
## # Groups:   Asesorias [2]
##    Asesorias Horas_asesorias Satisfaccion_asesorias               
##    <chr>               <dbl> <chr>                                
##  1 Si                      1 Descontento, no consegui resultados  
##  2 Si                      2 Descontento, no consegui resultados  
##  3 Si                      4 Satisfecho, las asesorias me salvaron
##  4 Si                      8 Satisfecho, las asesorias me salvaron
##  5 Si                      4 Frustrado, pude hacerlo mejor        
##  6 Si                      4 Satisfecho, las asesorias me salvaron
##  7 Si                      4 Frustrado, pude hacerlo mejor        
##  8 No                     NA <NA>                                 
##  9 No                     NA <NA>                                 
## 10 Si                      4 Frustrado, pude hacerlo mejor        
## # i 194 more rows
…
