S3 Cultura asiática
…
 Desviación estándar 

## [1] 11.83946

 Moda 

## [1] 10

Analisis descriptivo

7. Sacamos el outlier

## [1] 80

## # A tibble: 200 x 11
##     Edad Genero      IM Carrera PrincipalEntrete FrecuenActv GastosMen TiempoSem
##    <dbl> <chr>    <dbl> <chr>   <chr>                  <dbl>     <dbl>     <dbl>
##  1    20 Femenino   580 AM      Coleccion                  3        40         6
##  2    20 Masculi~    50 BIO     Series                    30       200         7
##  3    19 Masculi~    50 MC      Series                    60         0        96
##  4    19 Femenino  1100 IND     Leer                      30       120        28
##  5    17 Femenino     0 IND     Compras                    5       500         5
##  6    20 Masculi~  1200 MT      Videojuegos               20       500         6
##  7    18 Femenino     0 CS      Compras                    2       920       300
##  8    17 Femenino  1000 IND     Compras                    3       600        15
##  9    18 No bina~   920 IND     Series                     4       800         4
## 10    19 Masculi~   100 MT      Videojuegos               26        50        78
## # i 190 more rows
## # i 3 more variables: ConocesCul <chr>, Pais <chr>, ConsiFan <chr>
…
