PG2
…
Limpieza de la variable Precio:

CA %>% mutate(Precio =
              ifelse(Precio == "23 soles", "23",
              ifelse(Precio == "1.5", "15" ,      
              ifelse(Precio ==  "20-30", "25" ,
              ifelse(Precio ==  "5,46", "46" ,
              ifelse(Precio ==  "677", "77",
              ifelse(Precio ==  "0", NA,     
                     Precio
              ))))))) ->CA
CA %>% count(Precio) #Con este comando se visualiza que la variable se ha corregido; tambin se puede utilizar unique(Periodo_Corregido

## # A tibble: 41 x 2
##    Precio     n
##    <chr>  <int>
##  1 1          1
##  2 10         5
##  3 12         2
##  4 120        1
##  5 14         1
##  6 15        33
##  7 16         1
##  8 17         3
##  9 18         3
## 10 2          1
## # i 31 more rows
…
        ifelse(Tiempo == "1 hora y media", "90",
        ifelse(Tiempo == "15 min", "15",
        ifelse(Tiempo == "5m", "5",
        ifelse(Tiempo == "1 hora", "60",
        ifelse(Tiempo == "6 minutos", "6",
        ifelse(Tiempo == "2 minutos", "2",
        ifelse(Tiempo == "30 min", "30",
        ifelse(Tiempo == "A", "10",
        ifelse(Tiempo == "2.1", "21",
        ifelse(Tiempo == "3 horas", "180",
        ifelse(Tiempo == "0 horas ,4 minutos , 30 segundos", "4",Tiempo
        )))))))))))) -> CA
CA %>% count(Tiempo) #Con este comando se visualiza que la variable se ha corregido; tambin se puede utilizar unique(Periodo_Corregido) 

## # A tibble: 34 x 2
##    Tiempo     n
##    <chr>  <int>
##  1 1          2
##  2 10        36
##  3 100        2
##  4 12         1
##  5 120       17
##  6 13         1
##  7 15        43
##  8 150        4
##  9 16         2
## 10 180        5
## # i 24 more rows
…
CA %>% count(Marca) # Contabilizar cuntos han completado teniendo en cuenta las diferentes marcas

## # A tibble: 133 x 2
##    Marca                             n
##    <chr>                         <int>
##  1 .                                 1
##  2 Argan                             1
##  3 Clean                             1
##  4 Clear Men                         1
##  5 Clear men                         1
##  6 Cualquier shampoo da lo mismo     1
##  7 Cualquiera                        1
##  8 Cualquiera funciona               1
##  9 Dove                              5
## 10 ELVIVE                            1
## # i 123 more rows
…
      ifelse(Marca %in% c("Jhonson & Johnson","Johnson"),"Johnson's", 
      ifelse(Marca %in% c("Homen Natura","Natura", "natura"),"Natura",
      ifelse(Marca %in% c("Vitane"),"Vitane",
      ifelse(Marca %in% c("Medicasp"),"Medicasp",
      ifelse(Marca %in% c("geomen", "GEOMEN"),"Geomen", 
      ifelse(Marca %in% c("garnier fructis","garnier"),"Garnier",       
      ifelse(Marca %in% c("TIGI"),"TIGI",
      ifelse(Marca %in% c("herbal essences"),"Herbal Essences",
      ifelse(Marca %in% c("recamier"),"Recamier",
      ifelse(Marca %in% c("-", "", "No tengo", "Nose", "Ni yo la s","No me fijo en uno", "Hm", "ogx", "No","No me acuerdo pero es de un emprendimiento","No tengo preferencias", "No recuerdo el nombre" ,"void","No se","No me acuerdo", "Argan","No s", "Cualquiera funciona", "Cualquier shampoo da lo mismo", "a",".","Ukyff","H&m", "Hola","Sebastian" ), NA,
             Marca
             ))))))))))))))))))))))))))))))))) -> CA
CA %>% count(Marca)

## # A tibble: 37 x 2
##    Marca          n
##    <chr>      <int>
##  1 Ballerina      1
##  2 Baor           2
##  3 Barbaria       1
##  4 Capilatis      1
##  5 Clear Men      4
##  6 Cualquiera     1
##  7 Dove           6
##  8 Ego           10
##  9 Elvive         5
## 10 Eucerin        1
## # i 27 more rows
…
