Estado de las aulas de UTEC fuera del horario de clases
…
DF <- read_csv("BDPRO.csv")

Rows: 150 Columns: 19
-- Column specification --------------------------------------------------------
Delimiter: ","
chr (11): Aula, Tipo, Fecha, Ordenado, Aforo, Pizarra, Tacho, UltimaLimpieza...
dbl  (8): Piso, Hora, Limpio, Dispositivos, Alumnos, Ventanas, UltimaClase, ...

i Use `spec()` to retrieve the full column specification for this data.
i Specify the column types or set `show_col_types = FALSE` to quiet this message.

DF

# A tibble: 150 x 19
   Aula  Tipo        Piso  Hora Fecha Limpio Ordenado Aforo Dispositivos Pizarra
   <chr> <chr>      <dbl> <dbl> <chr>  <dbl> <chr>    <chr>        <dbl> <chr>  
 1 A903  Aula norm~     9    12 02/0~      5 Si       Si               4 Si     
 2 A906  Aula norm~     9    10 26/0~      5 No       Si               0 Si     
 3 M601  Laborator~     6    15 25/0~      5 Si       Si              10 Si     
 4 A905  Aula norm~     9    12 02/0~      3 Si       Si               2 Si     
 5 A202  Aula norm~     2    17 03/0~      4 Si       Si               3 Si     
 6 A704  Aula norm~     7    20 03/0~      3 No       No               2 Si     
 7 A705  Aula norm~     7    16 03/0~      3 No       Si               4 No     
 8 A901  Aula norm~     9    12 26/0~      4 No       Si               3 No     
 9 A702  Aula norm~     7    15 27/0~      5 No       No               3 No     
10 A1002 Aula norm~    10    12 02/0~      3 Si       Si               4 Si     
# i 140 more rows
# i 9 more variables: Alumnos <dbl>, Ventanas <dbl>, Tacho <chr>,
#   UltimaClase <dbl>, UltimaLimpieza <chr>, SiguienteClase <dbl>,
#   Uclaseh <chr>, Sclaseh <chr>, Intervalo <chr>
…
Renombrar variables

Ahora que todas las variables están correctamente definidas. Renombraremos unas cuentas para facilitar su uso al momento de programar.

DF %>% rename(Uclase = UltimaClase) -> DF
DF %>% rename(ULimpieza = UltimaLimpieza) -> DF
DF %>% rename(Sclase = SiguienteClase) -> DF
DF %>% rename(Disp = Dispositivos) -> DF
DF %>% rename(Ord = Ordenado) -> DF
DF

# A tibble: 150 x 19
   Aula  Tipo         Piso  Hora Fecha  Limpio Ord   Aforo  Disp Pizarra Alumnos
   <chr> <chr>       <dbl> <dbl> <chr>   <dbl> <chr> <chr> <dbl> <chr>     <dbl>
 1 A903  Aula normal     9    12 02/05~      5 Si    Si        4 Si            9
 2 A906  Aula normal     9    10 26/04~      5 No    Si        0 Si            6
 3 M601  Laboratorio     6    15 25/04~      5 Si    Si       10 Si            0
 4 A905  Aula normal     9    12 02/05~      3 Si    Si        2 Si            2
 5 A202  Aula normal     2    17 03/05~      4 Si    Si        3 Si            8
 6 A704  Aula normal     7    20 03/05~      3 No    No        2 Si            0
 7 A705  Aula normal     7    16 03/05~      3 No    Si        4 No            1
 8 A901  Aula normal     9    12 26/04~      4 No    Si        3 No            7
 9 A702  Aula normal     7    15 27/04~      5 No    No        3 No            0
10 A1002 Aula normal    10    12 02/05~      3 Si    Si        4 Si           10
# i 140 more rows
# i 8 more variables: Ventanas <dbl>, Tacho <chr>, Uclase <dbl>,
#   ULimpieza <chr>, Sclase <dbl>, Uclaseh <chr>, Sclaseh <chr>,
#   Intervalo <chr>
…
