S5_Informe.knit
…
Por otra parte podemos observar que el perfil de los estudiantes se
basa a la carrera a la cual pertenece por lo cual es necesario analizar
los aplicativos segn la carrera a la cual se estudia.

Anlisis comparativo

## # A tibble: 77 x 3
## # Groups:   CARRERA, APLICACIONES [77]
##    CARRERA                APLICACIONES     n
##    <chr>                  <chr>        <int>
##  1 Ingeniera Civil       AutoCAD         10
##  2 Ingeniera Civil       Canva           10
##  3 Ingeniera Industrial  Canva            9
##  4 Ingeniera Civil       One Note         7
##  5 Ingeniera Civil       Rstudio          7
##  6 Ingeniera Civil       Word             7
##  7 Ingeniera Industrial  Rstudio          6
##  8 Ingeniera Mecatrnica Word             6
##  9 Ingeniera Civil       Khan Academy     5
## 10 Ingeniera Industrial  Excel            5
## # i 67 more rows
…
