NECESIDADES DE IMPLEMENTACIÃ“N DE AMBIENTES EN EL CAMPUS UTEC
…
Si esta igualdad se cumple, entonces podemos decir que los eventos A
y B son independientes. Si no se cumple, entonces los eventos son
dependientes.

En el contexto del estudio, podrÃ­amos definir los siguientes
eventos:

Evento A: Un estudiante pasa cierto nÃºmero de horas en la biblioteca.
Evento B: Un estudiante pasa cierto tiempo buscando un espacio para
estudiar. Para verificar si estos eventos son independientes,
necesitarÃ­amos calcular la probabilidad condicional de A dado B (P(A|B))
y la probabilidad de A (P(A)), y luego compararlas.

## # A tibble: 24 x 10
##    HorasBiblio_intervalo TiempoBuscar_intervalo   n.x Probabilidad_Conjunta
##    <fct>                 <fct>                  <int>                 <dbl>
##  1 [0,1]                 [0.1,0.6]                 34               0.227  
##  2 [0,1]                 (0.6,1.1]                 14               0.0933 
##  3 [0,1]                 (1.1,1.6]                  2               0.0133 
##  4 [0,1]                 (1.6,2.1]                  2               0.0133 
##  5 [0,1]                 <NA>                       1               0.00667
##  6 (1,2]                 [0.1,0.6]                 19               0.127  
##  7 (1,2]                 (0.6,1.1]                 12               0.08   
##  8 (1,2]                 (1.1,1.6]                  1               0.00667
##  9 (1,2]                 (1.6,2.1]                  1               0.00667
## 10 (1,2]                 (2.1,2.6]                  1               0.00667
## # i 14 more rows
## # i 6 more variables: n.y <int>, Probabilidad_TiempoBuscar <dbl>,
## #   Probabilidad_Condicional <dbl>, n <int>, Probabilidad_HorasBiblio <dbl>,
## #   Son_independientes <lgl>
…
