Sengunda Entrega del proyecto
…
No se encuentra ningun error en el tipo de variables, as que la
limpieza de la base de datos esta terminada.

DF

## # A tibble: 6,723 x 13
##    FECHA_CORTE FECHA_MUESTRA CUENCA         ESTACION UNIDAD_MEDIDA TIPO_ESTACION
##    <date>      <date>        <chr>          <chr>    <chr>         <chr>        
##  1 2022-09-06  2022-09-06    PRESA EJIDOS   CANAL P~ m3/s          HIDROMETRICA 
##  2 2022-09-06  2022-09-06    PRESA EJIDOS   PTE. SA~ m3/s          HIDROLOGICA  
##  3 2022-09-06  2022-09-06    PRESA EJIDOS   COTE EM~ msnm          PRESA        
##  4 2022-09-06  2022-09-06    RIO PIURA      EL PAPA~ m3/s          HIDROLOGICA  
##  5 2022-09-06  2022-09-06    RIO PIURA      TAMBOGR~ m3/s          HIDROLOGICA  
##  6 2022-09-06  2022-09-06    RIO PIURA      PTE. NA~ m3/s          HIDROMETRICA 
##  7 2022-09-06  2022-09-06    PRESA SULLANA  CANAL N~ m3/s          HIDROLOGICA  
##  8 2022-09-06  2022-09-06    PRESA SULLANA  RIO CHI~ m3/s          HIDROLOGICA  
##  9 2022-09-06  2022-09-06    PRESA SULLANA  COTA EM~ msnm          PRESA        
## 10 2022-09-06  2022-09-06    PUNTOS DE CON~ CURUMUY  m3/s          HIDROMETRICA 
## # i 6,713 more rows
## # i 7 more variables: DEPARTAMENTO <chr>, PROVINCIA <chr>, DISTRITO <chr>,
## #   UBIGEO <dbl>, CAUDAL07H <dbl>, PROMEDIO24H <dbl>, MAXIMA24H <dbl>
…
table(DF$PROVINCIA, useNA = "always")

## 
##  Ayabaca Morropon    Piura  Sullana     <NA> 
##      747      249     1494     4233        0

Concluimos, que si es vlido y eficiente hacer un diagrama de
barras.

Queremos graficar las provincias con mayor caudal promedio, para eso
promediaremos todos los datos del CAUDALPROM24H por provincia.

## # A tibble: 6,723 x 2
##    PROVINCIA PROMEDIO24H
##    <chr>           <dbl>
##  1 Piura            12.9
##  2 Piura             0  
##  3 Piura             0  
##  4 Piura             0  
##  5 Piura             0  
##  6 Morropon          0  
##  7 Sullana          21.8
##  8 Sullana           5  
##  9 Sullana           0  
## 10 Piura            14.3
## # i 6,713 more rows
…
Los datos los obtuvimos de aqu.

En cuanto al tiempo discreto, es decir, contando en meses, podemos
obtener la siguiente grfica:

Fecha_muestra <- DF[1:6723, c(2,12)]
Fecha_muestra 

## # A tibble: 6,723 x 2
##    FECHA_MUESTRA PROMEDIO24H
##    <date>              <dbl>
##  1 2022-09-06           12.9
##  2 2022-09-06            0  
##  3 2022-09-06            0  
##  4 2022-09-06            0  
##  5 2022-09-06            0  
##  6 2022-09-06            0  
##  7 2022-09-06           21.8
##  8 2022-09-06            5  
##  9 2022-09-06            0  
## 10 2022-09-06           14.3
## # i 6,713 more rows
…
bb <- Fecha_muestra %>% filter(PROVINCIA == "Sullana" & PROMEDIO24H >= 20)

dhyper(25,1678,5045,30)

## [1] 2.572167e-11

Cual es la probabilidad de una muestra de 25, 16 de ellas tengan de
tipo de Estacion (Hidrometrica) y que su caudal promedio 24 H sea por lo
menos 20 #m^3/s?

bb <- Fecha_muestra %>% filter(TIPO_ESTACION == "HIDROMETRICA" & PROMEDIO24H >= 20)
bb

## # A tibble: 759 x 3
##    PROVINCIA PROMEDIO24H TIPO_ESTACION
##    <chr>           <dbl> <chr>        
##  1 Sullana          21.5 HIDROMETRICA 
##  2 Sullana          37   HIDROMETRICA 
##  3 Piura            20.1 HIDROMETRICA 
##  4 Piura            24.4 HIDROMETRICA 
##  5 Sullana          30.3 HIDROMETRICA 
##  6 Sullana          41.8 HIDROMETRICA 
##  7 Piura            20.8 HIDROMETRICA 
##  8 Piura            25.4 HIDROMETRICA 
##  9 Sullana          33.3 HIDROMETRICA 
## 10 Sullana          49   HIDROMETRICA 
## # i 749 more rows
…
