Casos atendidos de violencia hacia la mujer e integrantes del grupo familiar registrados en el Perú 2020-2022
…
## # A tibble: 25 x 2
##    ubicacion    total_casos
##    <chr>              <dbl>
##  1 AMAZONAS            4764
##  2 ANCASH             20477
##  3 APURIMAC            9582
##  4 AREQUIPA           40116
##  5 AYACUCHO           12884
##  6 CAJAMARCA           9166
##  7 CALLAO              9579
##  8 CUSCO              28943
##  9 HUANCAVELICA        5570
## 10 HUANUCO            13043
## # i 15 more rows
…
