Estudio sobre los Top 200 Weekly (Global) de Spotify (2017 - 2021)
…
## # A tibble: 5 x 11
##    Rank Track Artist  Streams Week       Album_Name Duration_Minutos Explicit
##   <dbl> <chr> <chr>     <dbl> <date>     <chr>                 <dbl> <lgl>   
## 1     4 <NA>  <NA>   25442248 2017-07-21 <NA>                   3.25 FALSE   
## 2    10 <NA>  <NA>   20049646 2017-07-21 <NA>                   3.10 FALSE   
## 3    30 <NA>  <NA>   12964826 2017-07-21 <NA>                   3.58 FALSE   
## 4    40 <NA>  <NA>   10766506 2017-07-21 <NA>                   3.68 FALSE   
## 5    32 <NA>  <NA>   10597738 2017-11-10 <NA>                   3.17 TRUE    
## # i 3 more variables: Track_Number_on_Album <dbl>, Artist_Followers <dbl>,
## #   Artist_Genres <chr>

R %>% filter (is.na (Artist_Genres) & !is.na (Track))

## # A tibble: 151 x 11
##     Rank Track    Artist Streams Week       Album_Name Duration_Minutos Explicit
##    <dbl> <chr>    <chr>    <dbl> <date>     <chr>                 <dbl> <lgl>   
##  1    90 Juju on~ Zay H~ 4580028 2017-01-06 Juju on T~             2.40 FALSE   
##  2   165 Oh Lord  MiC L~ 2991349 2017-01-06 Oh Lord                3.58 FALSE   
##  3   109 Juju on~ Zay H~ 4003507 2017-01-13 Juju on T~             2.40 FALSE   
##  4   159 Oh Lord  MiC L~ 3106807 2017-01-13 Oh Lord                3.58 FALSE   
##  5   130 Juju on~ Zay H~ 3782977 2017-01-20 Juju on T~             2.40 FALSE   
##  6   142 Oh Lord  MiC L~ 3504674 2017-01-20 Oh Lord                3.58 FALSE   
##  7   170 Romanti~ Stanaj 3011862 2017-01-20 From A Di~             3.08 FALSE   
##  8   136 Romanti~ Stanaj 3650171 2017-01-27 From A Di~             3.08 FALSE   
##  9   151 Juju on~ Zay H~ 3241682 2017-01-27 Juju on T~             2.40 FALSE   
## 10   165 Oh Lord  MiC L~ 3068806 2017-01-27 Oh Lord                3.58 FALSE   
## # i 141 more rows
## # i 3 more variables: Track_Number_on_Album <dbl>, Artist_Followers <dbl>,
## #   Artist_Genres <chr>
…
