S9 Impacto de los factores al escoger una carrera univeritaria en su bienestar academico actual
…
TiempoEstudio

DN %>% mutate(TiempoEstudio =
              ifelse(TiempoEstudio == "100.000.000.000.000.000.000",NA, TiempoEstudio
              )) -> DN
DN %>% count(TiempoEstudio)

## # A tibble: 29 x 2
##    TiempoEstudio     n
##    <chr>         <int>
##  1 1                 7
##  2 1.5               4
##  3 10                1
##  4 12                2
##  5 2                31
##  6 2.0               1
##  7 2.3               1
##  8 2.30              2
##  9 2.34              1
## 10 2.4               2
## # i 19 more rows
…
              ifelse(SalarioEsperado == "2.500", "2500",
              ifelse(SalarioEsperado == "20.000", "20000",
              ifelse(SalarioEsperado == "12.0000", "12000",
              ifelse(SalarioEsperado == "10.000", "10000",
              ifelse(SalarioEsperado == "10.000.000.000.000.000.000.000.000.000.000", NA,
              ifelse(SalarioEsperado == "4.000", "4000",
              ifelse(SalarioEsperado == "200.000", NA,
              ifelse(SalarioEsperado == "3.200", "3200",
              ifelse(SalarioEsperado == "5.000", "5000",
              ifelse(SalarioEsperado == "3", NA, 
              ifelse(SalarioEsperado == "1.500", "1500", SalarioEsperado
              ))))))))))))))))))-> DN
DN %>% count(SalarioEsperado)

## # A tibble: 36 x 2
##    SalarioEsperado     n
##    <chr>           <int>
##  1 10000              13
##  2 1200                2
##  3 12000               2
##  4 1500                7
##  5 15000               1
##  6 1700                1
##  7 1700.0              1
##  8 1800                1
##  9 18000               1
## 10 1900.00             1
## # i 26 more rows
…
Separamos los datos que tienen comas para poner formar otra base de
datos en donde cada dato tenga solo una opcion. Por lo que tendremos ms
observaciones

nuevadata <- DC %>%                
  separate_rows(Influencia, sep=",") 
nuevadata                         

## # A tibble: 472 x 17
##     Edad EColegio CIngreso Genero    Ciclo Carrera     OrientacionVoc Influencia
##    <int>    <int> <chr>    <chr>     <chr> <chr>       <chr>          <chr>     
##  1    19     2020 2022-1   Masculino 2     Ingeniera~ Si             "Salario" 
##  2    19     2020 2022-1   Masculino 2     Ingeniera~ Si             " Campo l~
##  3    19     2020 2022-1   Masculino 2     Ingeniera~ Si             ""        
##  4    20     2019 2022-1   Masculino 2     Ingeniera~ Si             "Test voc~
##  5    20     2019 2022-1   Masculino 2     Ingeniera~ Si             " Habilid~
##  6    17     2021 2022-2   Masculino 2     Ingeniera~ Si             "Habilida~
##  7    17     2021 2022-2   Masculino 2     Ingeniera~ Si             " Interes~
##  8    18     2020 2022-1   Masculino 2     Ingeniera~ Si             "Campo la~
##  9    18     2020 2022-1   Masculino 2     Ingeniera~ Si             " Test vo~
## 10    18     2020 2022-1   Masculino 2     Ingeniera~ Si             " Habilid~
## # i 462 more rows
## # i 9 more variables: TiempoEstudio <dbl>, SalarioEsperado <dbl>,
## #   RiesgoAcademico <chr>, RetiroCarrera <chr>, Oportunidad <chr>,
## #   Satisfaccion <chr>, PromedioPonderado <dbl>, SaludMental <chr>,
## #   Tiempo_escogercarrera <dbl>
…
