S4 Opinión sobre igualdad de oportunidades según sexo
…
       PreferenciaSexo = '¿Cree usted que hay más ventajas de ser hombre, o más ventajas de ser mujer, o no hay diferencia?',
       EstiloVida='¿Piensa usted que las mujeres jóvenes en Perú viven mejor, igual o peor que la generación de sus padres? 1. Mejor 2. Igual 3. Peor',
       HombrecuidaHijos='Un hombre que se queda en casa para cuidar a los niños es menos hombre',
       JefeMujer ="Me sentiría incómodo si mi jefe fuera mujer",
       MujerSinIgualdad="Las mujeres no lograrán la igualdad en Perú a menos que los hombres también tomen acciones para apoyar los derechos de la mujer",
       Cuidaninos="Cuidado de los niños y del hogar",
       igualnegocio = "“En los negocios“" ,
       igualdeporte = "En el deporte",
       igualtelecomunicaciones = "En los medios de comunicación, incluso la televisión",
       igualciencias = "En las ciencias",
       igualeducacion = "En la educación") -> Data2
DataFinal<- Data2[,-1]
DataFinal

## # A tibble: 152 x 15
##     Edad Ingresos Sexo   Instruccion PreferenciaSexo EstiloVida HombrecuidaHijos
##    <dbl>    <dbl> <chr>  <chr>       <chr>           <chr>      <chr>           
##  1    18      900 Femen~ Superior u~ Más ventajas s~ Mejor      Desacuerdo      
##  2    18     1000 Mascu~ Superior u~ No hay diferen~ Mejor      De acuerdo      
##  3    41     5000 Mascu~ Superior u~ No hay diferen~ Mejor      Desacuerdo      
##  4    18      300 Mascu~ Superior u~ Más ventajas s~ Peor       Desacuerdo      
##  5    28     1200 Femen~ Superior u~ No hay diferen~ Peor       Desacuerdo      
##  6    18      700 Mascu~ Secundaria~ Más ventajas s~ Peor       Desacuerdo      
##  7    24      400 Mascu~ Superior u~ No hay diferen~ Mejor      Desacuerdo      
##  8    17        0 Femen~ Secundaria~ Más ventajas s~ Peor       Desacuerdo      
##  9    25     1020 Mascu~ Superior u~ No hay diferen~ Mejor      Ni de acuerdo n~
## 10    43     2400 Femen~ Superior u~ No hay diferen~ Mejor      Desacuerdo      
## # i 142 more rows
## # i 8 more variables: JefeMujer <chr>, MujerSinIgualdad <chr>,
## #   Cuidaninos <chr>, igualnegocio <chr>, igualdeporte <chr>,
## #   igualtelecomunicaciones <chr>, igualciencias <chr>, igualeducacion <chr>
…
