Flujo Aéreo Internacional
…
3. AEROLÍNEAS

viajes_aer = v %>%
  group_by(`Operating Airline`) %>%
  summarise(sum(`Passenger Count`))

names(viajes_aer) = c("Aerolínea", "Pasajeros")
arrange(viajes_aer, desc(Pasajeros))

## # A tibble: 60 x 2
##    Aerolínea          Pasajeros
##    <chr>                  <dbl>
##  1 United Airlines     61431098
##  2 Alaska Airlines     14905372
##  3 SkyWest Airlines    14879194
##  4 Delta Air Lines     12165792
##  5 American Airlines   11746555
##  6 Southwest Airlines   9095293
##  7 JetBlue Airways      4267627
##  8 Air Canada           2178143
##  9 Frontier Airlines    1651719
## 10 EVA Airways          1416218
## # i 50 more rows
…
v=read_csv("Air_Traffic_Passenger_Statistics (3).csv")

## Rows: 15007 Columns: 16
## -- Column specification --------------------------------------------------------
## Delimiter: ","
## chr (12): Operating Airline, Operating Airline IATA Code, Published Airline,...
## dbl  (4): Activity Period, Passenger Count, Adjusted Passenger Count, Year
## 
## i Use `spec()` to retrieve the full column specification for this data.
## i Specify the column types or set `show_col_types = FALSE` to quiet this message.

v

## # A tibble: 15,007 x 16
##    `Activity Period` `Operating Airline` `Operating Airline IATA Code`
##                <dbl> <chr>               <chr>                        
##  1            200507 ATA Airlines        TZ                           
##  2            200507 ATA Airlines        TZ                           
##  3            200507 ATA Airlines        TZ                           
##  4            200507 Air Canada          AC                           
##  5            200507 Air Canada          AC                           
##  6            200507 Air China           CA                           
##  7            200507 Air China           CA                           
##  8            200507 Air France          AF                           
##  9            200507 Air France          AF                           
## 10            200507 Air New Zealand     NZ                           
## # i 14,997 more rows
## # i 13 more variables: `Published Airline` <chr>,
## #   `Published Airline IATA Code` <chr>, `GEO Summary` <chr>,
## #   `GEO Region` <chr>, `Activity Type Code` <chr>,
## #   `Price Category Code` <chr>, Terminal <chr>, `Boarding Area` <chr>,
## #   `Passenger Count` <dbl>, `Adjusted Activity Type Code` <chr>,
## #   `Adjusted Passenger Count` <dbl>, Year <dbl>, Month <chr>
…
## [1] 5948254185

cor(bdair$`Total Landed Weight`,bdair$`Landing Count`)

## [1] 0.7855887

Se busca verificar que las relaciones tengan una alta covarianza y un
valor cercano a 1 con respecto a la correlación. Para que pueda ser
relevante el estudio de las variables.

fillbd =select(bdair,"Landing Count","Total Landed Weight")
fillbd

## # A tibble: 22,047 x 2
##    `Landing Count` `Total Landed Weight`
##              <dbl>                 <dbl>
##  1              30               1410000
##  2             125              17787978
##  3              30              16620000
##  4               3                491700
##  5              16               7301712
##  6               9               3710376
##  7              30              12235650
##  8              60               8778000
##  9             283              40901600
## 10              29              16066000
## # i 22,037 more rows
…
