Estudio sobre la relación entre las tecnologías que usan los desarrolladores en su trabajo y su salud mental
…
encuesta$TotalLenguajes <- 0

for (i in 1:nrow(encuesta)) {
  cont <- 0
  for (pl in language) {
    if (encuesta[i, pl] == TRUE){
      cont <- cont + 1
    }
  }
  encuesta[i, 'TotalLenguajes'] <- cont
}

encuesta %>% group_by(TotalLenguajes) %>% count()

## # A tibble: 28 x 2
## # Groups:   TotalLenguajes [28]
##    TotalLenguajes     n
##             <dbl> <int>
##  1              1  1631
##  2              2  3103
##  3              3  4448
##  4              4  4891
##  5              5  4639
##  6              6  3609
##  7              7  2539
##  8              8  1596
##  9              9  1006
## 10             10   645
## # i 18 more rows
…
Cálculo de las probabilidades de los eventos atómicos:

A1: Seleccionar un programador del estudio que utiliza 1 lenguaje de
programación \ A2: Seleccionar un programador del estudio que utiliza 2
lenguajes de programación \ …\ A42: Seleccionar un programador del
estudio que utiliza 42 lenguajes de programación \

encuesta %>% group_by(TotalLenguajes) %>% count() -> probTotalLenguajes
probTotalLenguajes %>% rename(Frecuencia = n) -> probTotalLenguajes

probTotalLenguajes$ProbabilidadAtomica <- probTotalLenguajes$Frecuencia / nrow(encuesta)

probTotalLenguajes

## # A tibble: 28 x 3
## # Groups:   TotalLenguajes [28]
##    TotalLenguajes Frecuencia ProbabilidadAtomica
##             <dbl>      <int>               <dbl>
##  1              1       1631              0.0558
##  2              2       3103              0.106 
##  3              3       4448              0.152 
##  4              4       4891              0.167 
##  5              5       4639              0.159 
##  6              6       3609              0.124 
##  7              7       2539              0.0869
##  8              8       1596              0.0547
##  9              9       1006              0.0344
## 10             10        645              0.0221
## # i 18 more rows
…
