Cáncer de mama
…
colnames(CANCER)[4] <- "Proteína2"
colnames(CANCER)[5] <- "Proteína3"
colnames(CANCER)[6] <- "Proteína4"
colnames(CANCER)[7] <- "Etapa_del_Tumor"
colnames(CANCER)[8] <- "Histología"
colnames(CANCER)[9] <- "Estado_ER"
colnames(CANCER)[10] <- "Estado_PR"
colnames(CANCER)[11] <- "Estado_HER2"
colnames(CANCER)[12] <- "Tipo_de_Cirugía"
colnames(CANCER)[13] <- "Día_de_Cirugía"
colnames(CANCER)[14] <- "Última_Visita"
colnames(CANCER)[15] <- "Estado_del_Paciente"
CANCER

## # A tibble: 334 x 15
##     Edad Sexo   Proteína1 Proteína2 Proteína3 Proteína4 Etapa_del_Tumor
##    <dbl> <chr>      <dbl>     <dbl>     <dbl>     <dbl> <chr>          
##  1    42 FEMALE     0.953     2.15    0.00797   -0.0483 II             
##  2    54 FEMALE     0         1.38   -0.498     -0.507  II             
##  3    63 FEMALE    -0.523     1.76   -0.370      0.0108 II             
##  4    78 FEMALE    -0.876     0.129  -0.370      0.132  I              
##  5    42 FEMALE     0.226     1.75   -0.544     -0.390  II             
##  6    80 FEMALE     0.466     2.58   -1.25       0.152  III            
##  7    66 FEMALE    -0.725    -0.283   0.959      0.351  II             
##  8    36 FEMALE     0.469     1.55   -0.165     -0.276  III            
##  9    58 FEMALE    -1.27      0.106   1.14      -0.395  II             
## 10    62 FEMALE     0.649     1.82    0.279      0.132  II             
## # i 324 more rows
## # i 8 more variables: Histología <chr>, Estado_ER <chr>, Estado_PR <chr>,
## #   Estado_HER2 <chr>, Tipo_de_Cirugía <chr>, Día_de_Cirugía <chr>,
## #   Última_Visita <chr>, Estado_del_Paciente <chr>
…
CANCER$Estado_HER2[CANCER$Estado_HER2 == "Positive"] <- "Positivo"
CANCER$Estado_HER2[CANCER$Estado_HER2 == "Negative"] <- "Negativo"

CANCER$Estado_del_Paciente[CANCER$Estado_del_Paciente == "Alive"] <- "Vivo"
CANCER$Estado_del_Paciente[CANCER$Estado_del_Paciente == "Dead"] <- "Fallecido"

CANCER$Tipo_de_Cirugía[CANCER$Tipo_de_Cirugía == "Other"] <- "Otra"
CANCER$Tipo_de_Cirugía[CANCER$Tipo_de_Cirugía == "Lumpectomy"] <- "Lumpectomía"
CANCER$Tipo_de_Cirugía[CANCER$Tipo_de_Cirugía == "Simple Mastectomy"] <- "Mastectomía Simple"
CANCER$Tipo_de_Cirugía[CANCER$Tipo_de_Cirugía == "Modified Radical Mastectomy"] <- "Mastectomía Radical Modificada"

CANCER

## # A tibble: 334 x 15
##     Edad Sexo     Proteína1 Proteína2 Proteína3 Proteína4 Etapa_del_Tumor
##    <dbl> <chr>        <dbl>     <dbl>     <dbl>     <dbl> <chr>          
##  1    42 Femenino     0.953     2.15    0.00797   -0.0483 II             
##  2    54 Femenino     0         1.38   -0.498     -0.507  II             
##  3    63 Femenino    -0.523     1.76   -0.370      0.0108 II             
##  4    78 Femenino    -0.876     0.129  -0.370      0.132  I              
##  5    42 Femenino     0.226     1.75   -0.544     -0.390  II             
##  6    80 Femenino     0.466     2.58   -1.25       0.152  III            
##  7    66 Femenino    -0.725    -0.283   0.959      0.351  II             
##  8    36 Femenino     0.469     1.55   -0.165     -0.276  III            
##  9    58 Femenino    -1.27      0.106   1.14      -0.395  II             
## 10    62 Femenino     0.649     1.82    0.279      0.132  II             
## # i 324 more rows
## # i 8 more variables: Histología <chr>, Estado_ER <chr>, Estado_PR <chr>,
## #   Estado_HER2 <chr>, Tipo_de_Cirugía <chr>, Día_de_Cirugía <chr>,
## #   Última_Visita <chr>, Estado_del_Paciente <chr>
…
## [1] 330

# Pacientes de sexo masculino
nrow(subset(CANCER, Sexo=='Masculino'))

## [1] 4

Como nuestra investigación se basa en paciente de sexo femenino,
seleccionamos solo las observaciones en las que la variable
Sexo es Femenino

CANCER <- subset(CANCER, Sexo=='Femenino')
CANCER

## # A tibble: 330 x 15
##     Edad Sexo     Proteína1 Proteína2 Proteína3 Proteína4 Etapa_del_Tumor
##    <dbl> <chr>        <dbl>     <dbl>     <dbl>     <dbl> <chr>          
##  1    42 Femenino     0.953     2.15    0.00797   -0.0483 II             
##  2    54 Femenino     0         1.38   -0.498     -0.507  II             
##  3    63 Femenino    -0.523     1.76   -0.370      0.0108 II             
##  4    78 Femenino    -0.876     0.129  -0.370      0.132  I              
##  5    42 Femenino     0.226     1.75   -0.544     -0.390  II             
##  6    80 Femenino     0.466     2.58   -1.25       0.152  III            
##  7    66 Femenino    -0.725    -0.283   0.959      0.351  II             
##  8    36 Femenino     0.469     1.55   -0.165     -0.276  III            
##  9    58 Femenino    -1.27      0.106   1.14      -0.395  II             
## 10    62 Femenino     0.649     1.82    0.279      0.132  II             
## # i 320 more rows
## # i 8 more variables: Histología <chr>, Estado_ER <chr>, Estado_PR <chr>,
## #   Estado_HER2 <chr>, Tipo_de_Cirugía <chr>, Día_de_Cirugía <chr>,
## #   Última_Visita <chr>, Estado_del_Paciente <chr>

Ahora que solo contamos con paciente de sexo femenino, notamos que la
variable Sexo no es necesaria, ya que de por sí todos los
pacientes son del mismo sexo.

CANCER <- CANCER[,!names(CANCER) %in% c("Sexo")]
CANCER

## # A tibble: 330 x 14
##     Edad Proteína1 Proteína2 Proteína3 Proteína4 Etapa_del_Tumor Histología     
##    <dbl>     <dbl>     <dbl>     <dbl>     <dbl> <chr>           <chr>          
##  1    42     0.953     2.15    0.00797   -0.0483 II              Carcinoma Duct~
##  2    54     0         1.38   -0.498     -0.507  II              Carcinoma Duct~
##  3    63    -0.523     1.76   -0.370      0.0108 II              Carcinoma Duct~
##  4    78    -0.876     0.129  -0.370      0.132  I               Carcinoma Duct~
##  5    42     0.226     1.75   -0.544     -0.390  II              Carcinoma Duct~
##  6    80     0.466     2.58   -1.25       0.152  III             Carcinoma Duct~
##  7    66    -0.725    -0.283   0.959      0.351  II              Carcinoma Duct~
##  8    36     0.469     1.55   -0.165     -0.276  III             Carcinoma Duct~
##  9    58    -1.27      0.106   1.14      -0.395  II              Carcinoma Duct~
## 10    62     0.649     1.82    0.279      0.132  II              Carcinoma Lobu~
## # i 320 more rows
## # i 7 more variables: Estado_ER <chr>, Estado_PR <chr>, Estado_HER2 <chr>,
## #   Tipo_de_Cirugía <chr>, Día_de_Cirugía <chr>, Última_Visita <chr>,
## #   Estado_del_Paciente <chr>

Existen dos variables que tienen solo un dato único, por lo que
procedemos a borrarlas, ya que para todos los pacientes se cumple el
mismo parámetro.

CANCER <- CANCER[,!names(CANCER) %in% c("Estado_ER", "Estado_PR")]
CANCER

## # A tibble: 330 x 12
##     Edad Proteína1 Proteína2 Proteína3 Proteína4 Etapa_del_Tumor Histología     
##    <dbl>     <dbl>     <dbl>     <dbl>     <dbl> <chr>           <chr>          
##  1    42     0.953     2.15    0.00797   -0.0483 II              Carcinoma Duct~
##  2    54     0         1.38   -0.498     -0.507  II              Carcinoma Duct~
##  3    63    -0.523     1.76   -0.370      0.0108 II              Carcinoma Duct~
##  4    78    -0.876     0.129  -0.370      0.132  I               Carcinoma Duct~
##  5    42     0.226     1.75   -0.544     -0.390  II              Carcinoma Duct~
##  6    80     0.466     2.58   -1.25       0.152  III             Carcinoma Duct~
##  7    66    -0.725    -0.283   0.959      0.351  II              Carcinoma Duct~
##  8    36     0.469     1.55   -0.165     -0.276  III             Carcinoma Duct~
##  9    58    -1.27      0.106   1.14      -0.395  II              Carcinoma Duct~
## 10    62     0.649     1.82    0.279      0.132  II              Carcinoma Lobu~
## # i 320 more rows
## # i 5 more variables: Estado_HER2 <chr>, Tipo_de_Cirugía <chr>,
## #   Día_de_Cirugía <chr>, Última_Visita <chr>, Estado_del_Paciente <chr>
…
## [1] 180

length(unique(CANCER$Última_Visita))

## [1] 282

Última_Visita y Día_de_Cirugía no serán
usadas en el análisis, por lo que no es necesario mantenerlas en
CANCER

CANCER <- CANCER[,!names(CANCER) %in% c("Última_Visita", "Día_de_Cirugía")]
CANCER

## # A tibble: 330 x 10
##     Edad Proteína1 Proteína2 Proteína3 Proteína4 Etapa_del_Tumor Histología     
##    <dbl>     <dbl>     <dbl>     <dbl>     <dbl> <chr>           <chr>          
##  1    42     0.953     2.15    0.00797   -0.0483 II              Carcinoma Duct~
##  2    54     0         1.38   -0.498     -0.507  II              Carcinoma Duct~
##  3    63    -0.523     1.76   -0.370      0.0108 II              Carcinoma Duct~
##  4    78    -0.876     0.129  -0.370      0.132  I               Carcinoma Duct~
##  5    42     0.226     1.75   -0.544     -0.390  II              Carcinoma Duct~
##  6    80     0.466     2.58   -1.25       0.152  III             Carcinoma Duct~
##  7    66    -0.725    -0.283   0.959      0.351  II              Carcinoma Duct~
##  8    36     0.469     1.55   -0.165     -0.276  III             Carcinoma Duct~
##  9    58    -1.27      0.106   1.14      -0.395  II              Carcinoma Duct~
## 10    62     0.649     1.82    0.279      0.132  II              Carcinoma Lobu~
## # i 320 more rows
## # i 3 more variables: Estado_HER2 <chr>, Tipo_de_Cirugía <chr>,
## #   Estado_del_Paciente <chr>
…
La variable Estado_del_Paciente contiene información
fundamental que se empleará para clasificar a las pacientes, por lo que
es necesario que cada observación sea un caso completo. Es por ello que
se eliminarán las observaciones con NAs en esta variable.

CANCER <- CANCER[complete.cases(CANCER), ] 
CANCER

## # A tibble: 317 x 10
##     Edad Proteína1 Proteína2 Proteína3 Proteína4 Etapa_del_Tumor Histología     
##    <dbl>     <dbl>     <dbl>     <dbl>     <dbl> <chr>           <chr>          
##  1    42     0.953     2.15    0.00797   -0.0483 II              Carcinoma Duct~
##  2    54     0         1.38   -0.498     -0.507  II              Carcinoma Duct~
##  3    63    -0.523     1.76   -0.370      0.0108 II              Carcinoma Duct~
##  4    78    -0.876     0.129  -0.370      0.132  I               Carcinoma Duct~
##  5    42     0.226     1.75   -0.544     -0.390  II              Carcinoma Duct~
##  6    80     0.466     2.58   -1.25       0.152  III             Carcinoma Duct~
##  7    66    -0.725    -0.283   0.959      0.351  II              Carcinoma Duct~
##  8    36     0.469     1.55   -0.165     -0.276  III             Carcinoma Duct~
##  9    58    -1.27      0.106   1.14      -0.395  II              Carcinoma Duct~
## 10    51    -0.385     0.806  -1.63      -0.513  II              Carcinoma Duct~
## # i 307 more rows
## # i 3 more variables: Estado_HER2 <chr>, Tipo_de_Cirugía <chr>,
## #   Estado_del_Paciente <chr>
…
