Gestión del presupuesto semanal de los estudiantes UTEC del ciclo 2023-1
…
## 
##     10   14.4     15     20     25     30     35     40     50     55     60 
##      3      1      2      6      2      5      1      8     23      1      6 
##     65     70     72     73     75     80     87    100 105.89    110    120 
##      1      6      1      1      1      9      1     33      1      2     11 
##    125    130    140    150    153    160    180    200    220    240    250 
##      1      1      1     14      1      1      1     19      2      1      5 
##    300    325    350    400    500 
##     11      1      1      4      2

show(BD)

## # A tibble: 191 x 24
##    IngresoUniversidad EstudiayTrabaja Escala Beca      PresupuestoS
##    <chr>              <chr>           <chr>  <chr>            <dbl>
##  1 2021-2             No              E      Becado             100
##  2 2021-2             No              E      Becado             150
##  3 2020-1             No              D      No becado          100
##  4 2021-2             No              E      Becado             100
##  5 2021-1             No              E      Becado              50
##  6 2019-1             Sí              E      Becado             100
##  7 2021-2             No              E      Becado              80
##  8 2021-2             Sí              E      Becado              10
##  9 2021-2             No              E      Becado             200
## 10 2021-2             No              E      Becado              20
## # i 181 more rows
## # i 19 more variables: CantidadAlmuerzos <dbl>, PrecioMaxAlmuerzos <dbl>,
## #   TipodeTransporte <chr>, GastoSemanalTransporte <chr>, PlanMovil <chr>,
## #   AsistenciaUniversidad <dbl>, GastoExtra <dbl>, PlanificacionGastosS <chr>,
## #   ConociminetoFinanciero <chr>, FrecuenciaAprendizajeFi <dbl>,
## #   MedioInformacionFi <chr>, AhorroSemanal <chr>, Organizacion <chr>,
## #   NiveldeAdministraicon <dbl>, CantidadTalleresFi <chr>, ...
…
4.1.16
Relación entre el presupuesto y el gasto plan móvil:

Se considera solamente a los alumnos con gasto plan móvil prepago
porque los valores son diferentes a 0.

library(ggplot2)
BD5=BD2 

BD5[which(BD2$GastoPlanMovil<1), 24]

## # A tibble: 116 x 1
##    GastoPlanMovil
##             <dbl>
##  1              0
##  2              0
##  3              0
##  4              0
##  5              0
##  6              0
##  7              0
##  8              0
##  9              0
## 10              0
## # i 106 more rows
…
