Análisis de la contaminación en estaciones de monitoreo del aire seleccionadas de Lima Metropolitana, un estudio de 2015 a 2018
…
Distribución Binomial

Crearemos una variable extra en nuestra base de datos, que intentará
clasificar las cantidades de PM2.5, el cual consideramos el contaminante
mas dañino, en 3 diferentes grupos, nivel bajo, que abarcara de 0 a 10
\(\mu g/m^3\), nivel medio de 10 a 50
\(\mu g/m^3\), y alto para cantidades
mayores a 50\(\mu g/m^3\).

## # A tibble: 34,926 x 2
##    PM2.5 nivelPM2.5
##    <dbl> <chr>     
##  1  20.9 Medio     
##  2  24.6 Medio     
##  3  42.5 Medio     
##  4  52.9 Alto      
##  5  72.8 Alto      
##  6  86.2 Alto      
##  7  91.6 Alto      
##  8  94.7 Alto      
##  9  97.8 Alto      
## 10  81.5 Alto      
## # i 34,916 more rows
…
Podemos confirmar que la variable aleatoria propuesta
cumplen con las propiedades de distribución binomial y por lo tanto
sigue tal distribución

Distribución Geométrica

Crearemos una variable extra en nuestra base de datos, que intentará
clasificar las cantidades de O3, el cual consideramos el segundo
contaminante mas dañino, en 3 diferentes grupos, nivel bajo, que
abarcara de 0 a 30 \(\mu g/m^3\), nivel
medio de 30 a 50\(\mu g/m^3\), y alto
para cantidades mayores a 50\(\mu
g/m^3\).

## # A tibble: 34,926 x 2
##    PM2.5 nivelPM2.5
##    <dbl> <chr>     
##  1  20.9 Medio     
##  2  24.6 Medio     
##  3  42.5 Medio     
##  4  52.9 Alto      
##  5  72.8 Alto      
##  6  86.2 Alto      
##  7  91.6 Alto      
##  8  94.7 Alto      
##  9  97.8 Alto      
## 10  81.5 Alto      
## # i 34,916 more rows
…
