Calidad del servicio de internet de los estudiantes de UTEC
…
## Warning: package 'pander' was built under R version 4.1.3

## Rows: 153 Columns: 15

## -- Column specification --------------------------------------------------------
## Delimiter: ","
## chr (8): Marca temporal, En qu departamento te encuentras? (Ejemplo: Loret...
## dbl (7): Qu monto en soles pagas por este servicio? (Ejemplo: 50), Cunto...
## 
## i Use `spec()` to retrieve the full column specification for this data.
## i Specify the column types or set `show_col_types = FALSE` to quiet this message.

## # A tibble: 153 x 15
##    MT           Region Tipo_conexion Distribuidor Costo  Ping V_carga V_descarga
##    <chr>        <chr>  <chr>         <chr>        <dbl> <dbl> <chr>        <dbl>
##  1 28/09/2021 ~ Lima   Wifi          Movistar       150    22 11          196   
##  2 28/09/2021 ~ Callao Wifi          Claro          100     9 32.34        97   
##  3 28/09/2021 ~ Callao Cable         Movistar        70     5 44.2         50.0 
##  4 28/09/2021 ~ Lima   Wifi          Win            120    40 90           90   
##  5 28/09/2021 ~ Callao Wifi          Alta veloci~    50    50 4.1          10   
##  6 28/09/2021 ~ Lima   Wifi          Cable Vision   105     5 4.72          9.44
##  7 28/09/2021 ~ Cajam~ Datos         Movistar        65    23 0.48          1.02
##  8 28/09/2021 ~ La Li~ Wifi          Claro           80    10 15           25   
##  9 28/09/2021 ~ Cajam~ Cable         Movistar       120     5 24.61        26.8 
## 10 28/09/2021 ~ Lima   Wifi          Movistar        50    19 5.8          25   
## # i 143 more rows
## # i 7 more variables: Tiempo_uso <chr>, Personas <dbl>, Tipo_uso <chr>,
## #   Conformidad <dbl>, Problemas <chr>, VD_ofrecida <dbl>, VC_ofrecida <dbl>
…
