Entrega P1 - Análisis para la determinación de factores principales para la efectividad mercantil de empresas gacela durante el 2016 AL 2021
…
Limpieza de base de datos

Tomar columnas importantes

Empezaremos eliminando las columnas que no nos interesan usando la
función select del paquete dplyr:

DF <- select(DF, cod_provincia, Accionistas, AccionistasExt, AnioConst, IDSector, "Export/Import", HabMunRango, EmpleadosN1, EmpleadosN5, ROAN1, ROAN2, RliquN1, RliquN2, VN1, VN2, VN3, VN4, VN5, RESN1, RESN2, RendN1, RendN2, ATN1, ATN2)

Ahora veremos cómo quedó la base de datos:

DF

## # A tibble: 41,970 x 24
##    cod_provincia Accionistas AccionistasExt AnioConst IDSector `Export/Import`  
##            <dbl>       <dbl>          <dbl> <chr>     <chr>    <chr>            
##  1            17           3             NA AñoA      G        Importa y exporta
##  2            18           1             NA AñoA      M        Nada             
##  3            30           1             NA AñoA      G        Nada             
##  4            30          NA             NA AñoA      C        Nada             
##  5            20          NA             NA AñoA      G        Nada             
##  6             5           4             NA AñoA      H        Nada             
##  7            31          NA             NA AñoA      I        Nada             
##  8            41           6             NA AñoA      C        Nada             
##  9            33          NA             NA AñoA      C        Nada             
## 10            33          NA             NA AñoA      L        Nada             
## # i 41,960 more rows
## # i 18 more variables: HabMunRango <chr>, EmpleadosN1 <dbl>, EmpleadosN5 <dbl>,
## #   ROAN1 <dbl>, ROAN2 <dbl>, RliquN1 <dbl>, RliquN2 <dbl>, VN1 <dbl>,
## #   VN2 <dbl>, VN3 <dbl>, VN4 <dbl>, VN5 <dbl>, RESN1 <dbl>, RESN2 <dbl>,
## #   RendN1 <dbl>, RendN2 <dbl>, ATN1 <dbl>, ATN2 <dbl>
…
