Relación entre el ejercicio, alimentación y rendimiento académico en los estudiantes de UTEC.
…
## # A tibble: 55 x 2
##    `datosdep$peso`     n
##              <dbl> <int>
##  1            41       2
##  2            45       2
##  3            47       2
##  4            48       5
##  5            49       2
##  6            50       8
##  7            50.5     1
##  8            51       1
##  9            52       1
## 10            53       2
## # i 45 more rows
…
## # A tibble: 37 x 2
##    `datosdep$estatura`     n
##                  <dbl> <int>
##  1                1.5      5
##  2                1.51     1
##  3                1.52     3
##  4                1.53     3
##  5                1.54     6
##  6                1.55     7
##  7                1.56     5
##  8                1.57     2
##  9                1.58     3
## 10                1.59     2
## # i 27 more rows
…
Como podemos observar a través de las tablas, el deporte más
realizado es el de “Gimnasio/Calistenia/Crossfit”

## # A tibble: 25 x 2
##    tipo_act                            n
##    <chr>                           <int>
##  1 "No ejercita"                      85
##  2 "Fútbol"                           36
##  3 "Gimnasio/Calistenia/Crossfit"     20
##  4 " Gimnasio/Calistenia/Crossfit"    18
##  5 " Ciclismo"                        13
##  6 " Running"                         13
##  7 " Natación"                         9
##  8 "Natación"                          9
##  9 " Artes Marciales"                  8
## 10 " Básquet"                          6
## # i 15 more rows
…
Quitamos de consideración a los que no ejercitan

## # A tibble: 96 x 1
##    NewTiem_act
##          <dbl>
##  1        7200
##  2        5400
##  3        7200
##  4        7200
##  5        9000
##  6       14400
##  7        7200
##  8        3600
##  9        8400
## 10        3600
## # i 86 more rows
…
