Estudio de la Relación Entre los Precios de Vivienda y sus Características de Propiedad Durante el Año 2019 en Lima
…
urbania_dataf1

## # A tibble: 30 x 3
##    `Estado de Inmueble` Sector                Frecuencia
##    <fct>                <chr>                      <int>
##  1 Excelente            LIMA CENTRO                  233
##  2 Excelente            LIMA ESTE                    343
##  3 Excelente            LIMA NORTE                    71
##  4 Excelente            LIMA SUR Y BALNEARIOS         75
##  5 Excelente            OTROS                        153
##  6 Muy bueno            LIMA CENTRO                  436
##  7 Muy bueno            LIMA ESTE                    484
##  8 Muy bueno            LIMA NORTE                    92
##  9 Muy bueno            LIMA SUR Y BALNEARIOS        109
## 10 Muy bueno            OTROS                        195
## # i 20 more rows
…
