Estudio estadístico sobre teleorientación psicológica dirigido a usuarios de Óyeme mayores de 18 años que requieran atención para la salud mental debido a la pandemia atravesada
…
No existen datos faltantes y solo algunas variables poseen datos
atipicos los cuales verificaremos en el posterior procedimiento

DFN

## # A tibble: 151 x 26
##    Sexo           Edad Ocupacion Ingreso Ecivil Talla  Peso Canales Citas Tcitas
##    <chr>         <dbl> <chr>     <chr>   <chr>  <dbl> <dbl> <chr>   <dbl>  <dbl>
##  1 Femenino         23 Estudian~ No ten~ Solte~  1.56  50.5 Redes ~     1     45
##  2 Masculino        20 Estudian~ No ten~ Solte~  1.7   68.2 Redes ~     2     90
##  3 Prefiero no ~    19 Estudian~ No ten~ Solte~  1.6   58.6 Redes ~     1     45
##  4 Femenino         20 Estudian~ No ten~ Solte~  1.58  55.3 Redes ~     2     90
##  5 Femenino         25 Estudian~ 930 a ~ Solte~  1.65  58.6 Por al~     1     45
##  6 Femenino         22 Estudian~ No ten~ Solte~  1.6   55.5 Redes ~     1     45
##  7 Femenino         25 Estudian~ No ten~ Solte~  1.54  57.3 Redes ~     1     45
##  8 Masculino        24 Estudian~ 930 a ~ Casad~  1.72  66.5 Por al~     1     45
##  9 Femenino         20 Estudian~ No ten~ Solte~  1.59  54.3 Redes ~     2     90
## 10 Masculino        22 Estudian~ Menos ~ Solte~  1.66  59.2 Redes ~     2     90
## # i 141 more rows
## # i 16 more variables: Pservicio <dbl>, Webinars <dbl>, Twebinars <dbl>,
## #   Pwebinars <dbl>, Htrabajo <dbl>, Hestudio <dbl>, Hijos <chr>,
## #   Hdescanso <dbl>, Hlibre <dbl>, Pconvives <dbl>, Situaciones <dbl>,
## #   Saludf <dbl>, Dcomida <dbl>, SNAnimales <chr>, Animales <dbl>,
## #   CentroSalud <chr>
…
