R Notebook
…
Una vez incorporada la tabla y asignada al Rstudio dentro de nuestra
variable, la llamamos, para un mejor panorama tambin usaremos
head y tail para poder observar las 6 y
ultimas filas de nuestra tabla.

DB

## # A tibble: 211 x 20
##    `Marca temporal`   `Direccin de correo electrnico` `Nombres y apellidos`   
##    <chr>              <chr>                             <chr>                   
##  1 9/24/2022 13:58:55 liliam.sandoval@utec.edu.pe       Liliam Sandoval Zapata  
##  2 9/24/2022 14:02:44 abrahan.ypanaque@utec.edu.pe      Abrahan Orlando Ypanaqu~
##  3 9/24/2022 14:29:40 sergio.salvatierra@utec.edu.pe    Sergio Salvatierra avi~
##  4 9/24/2022 14:35:05 daniela.tito@utec.edu.pe          Daniela Romina Tito Bus~
##  5 9/24/2022 15:02:38 dai.calisaya@utec.edu.pe          Dai Isabel Calisaya Del~
##  6 9/24/2022 15:27:05 kelly.cruz@utec.edu.pe            Kelly Marita Cruz Inga  
##  7 9/24/2022 15:58:32 aldair.seminario@utec.edu.pe      Aldair Seminario Snchez
##  8 9/24/2022 16:42:42 irma.chavez@utec.edu.pe           Irma Gaudencia Chavez G~
##  9 9/24/2022 17:20:04 gonzalo.sarmiento@utec.edu.pe     Gonzalo Edison Sarmient~
## 10 9/24/2022 18:20:43 conrad.leon@utec.edu.pe           Conrad Sebastian Len C~
## # i 201 more rows
## # i 17 more variables: `En qu ciclo te encuentras actualmente?` <chr>,
## #   Carrera <chr>, Edad <dbl>,
## #   `Qu medidas bioseguridad usas para evitar contagiarte de Covid - 19 dentro de UTEC?` <chr>,
## #   `Llevas alcohol en gel al salir?\n` <dbl>,
## #   `Cantidad de veces que se lava las manos al da (Ej: 4)` <dbl>,
## #   `Con qu frecuencia sueles desechar tu mascarilla a la semana?` <dbl>, ...
…
Para poder descartar las variables mencionadas anteriormente usaremos
selec y procedemos a escoger el rango de variables
descartadas en este caso por ser contiguas, ests sern almacenadas en
otra variable llamada DA.

select(DB,-1:-3)->DA
DA

## # A tibble: 211 x 17
##    En qu ciclo te encuentras actualment~1 Carrera  Edad Qu medidas biosegu~2
##    <chr>                                    <chr>   <dbl> <chr>                 
##  1 Tercer ciclo                             Ingeni~    22 Utilizo los dispensad~
##  2 Tercer ciclo                             Ingeni~    18 Me lavo las mano vari~
##  3 Tercer ciclo                             Ingeni~    20 Utilizo los dispensad~
##  4 Tercer ciclo                             Ingeni~    20 Utilizo los dispensad~
##  5 Tercer ciclo                             Ingeni~    17 Utilizo los dispensad~
##  6 Tercer ciclo                             Ingeni~    19 Utilizo los dispensad~
##  7 Tercer ciclo                             Cienci~    18 Utilizo los dispensad~
##  8 Tercer ciclo                             Bioing~    19 Utilizo los dispensad~
##  9 Segundo ciclo                            Ingeni~    19 Utilizo los dispensad~
## 10 Quinto ciclo                             Ingeni~    20 Utilizo los dispensad~
## # i 201 more rows
## # i abbreviated names: 1: `En qu ciclo te encuentras actualmente?`,
## #   2: `Qu medidas bioseguridad usas para evitar contagiarte de Covid - 19 dentro de UTEC?`
## # i 13 more variables: `Llevas alcohol en gel al salir?\n` <dbl>,
## #   `Cantidad de veces que se lava las manos al da (Ej: 4)` <dbl>,
## #   `Con qu frecuencia sueles desechar tu mascarilla a la semana?` <dbl>,
## #   `Cantidad de veces al da que utiliza los dispensadores de alcohol en gel ubicado en los distintos espacios de la UTEC` <dbl>, ...
…
DDHS

## # A tibble: 211 x 17
##    Ciclo  Carrera  Edad Medidas Alcohol Lavado Mascarilla Dispensadores Quitarte
##    <chr>  <chr>   <dbl> <chr>     <dbl>  <dbl>      <dbl>         <dbl>    <dbl>
##  1 Terce~ Ingeni~    22 Utiliz~       1      1          9             2        2
##  2 Terce~ Ingeni~    18 Me lav~       1      4          4             0        2
##  3 Terce~ Ingeni~    20 Utiliz~       2      1          6             1        1
##  4 Terce~ Ingeni~    20 Utiliz~       1      4          3             1        2
##  5 Terce~ Ingeni~    17 Utiliz~       2      5          1             1        2
##  6 Terce~ Ingeni~    19 Utiliz~       2      5          1             2        2
##  7 Terce~ Cienci~    18 Utiliz~       2      7          3             2        2
##  8 Terce~ Bioing~    19 Utiliz~       2      8          1             0        1
##  9 Segun~ Ingeni~    19 Utiliz~       2      6          3             2        2
## 10 Quint~ Ingeni~    20 Utiliz~       2      5          8             4        1
## # i 201 more rows
## # i 8 more variables: Dosis <dbl>, Contagiado <chr>, Num_covid <dbl>,
## #   Ventilada <chr>, Num_medidas <dbl>, Riesgo <chr>, Espacios <chr>,
## #   Tiempo <dbl>
…
